…
# To uninstall the package, use:
# remove.packages("ahrf")
```

Usage
=====

Load the state file
-------------------

``` r
library(tidyverse)
ahrf::ahrf_state
#> # A tibble: 52 x 1,122
#>    SF00001 SF00002 `SF01201-14` `SF01202-14` `SF01203-14` `SF01204-14`
#>      <chr>   <chr>        <chr>        <chr>        <chr>        <chr>
#>  1      01      AL       010290       007558       002732       001996
#>  2      02      AK       001969       001039            .            .
#>  3      04      AZ       015654       010877       004777       002979
#>  4      05      AR       005698       004063       001635       000828
#>  5      06      CA       101580       064218       037362       017869
#>  6      08      CO       014720       008623       006097       002623
#>  7      09      CT       013741       008745       004996       003031
#>  8      10      DE       002734       001863       000871       000516
#>  9      11      DC       007130       003946       003184       002754
#> 10      12      FL       050556       036039       014517       006760
#> # ... with 42 more rows, and 1116 more variables: `SF01205-14` <chr>,
#> #   `SF01206-14` <chr>, `SF01207-14` <chr>, `SF01208-14` <chr>,
#> #   `SF01209-14` <chr>, `SF01210-14` <chr>, `SF01211-14` <chr>,
#> #   `SF01212-14` <chr>, `SF01220-14` <chr>, `SF01221-14` <chr>,
#> #   `SF01226-14` <chr>, `SF01228-14` <chr>, `SF01229-14` <chr>,
#> #   `SF01099-15` <chr>, `SF01078-14` <chr>, `SF01079-14` <chr>,
#> #   `SF01088-14` <chr>, `SF01089-14` <chr>, `SF01090-14` <chr>,
#> #   `SF01091-14` <chr>, `SF01092-14` <chr>, `SF01093-14` <chr>,
#> #   `SF01101-14` <chr>, `SF01102-14` <chr>, `SF01095-14` <chr>,
…
County-level hospital beds in 2013
----------------------------------

``` r
ahrf::ahrf_county %>% 
        select(county = F04437, 
               fips = F00002, 
               beds_2013 = `F08921-13`,
               pop_2013 = `F11984-13`) %>% 
        mutate(beds_2013 = as.integer(beds_2013),
               pop_2013 = as.integer(pop_2013),
               beds_2013_p10k = beds_2013 / pop_2013 * 10000) -> beds
beds
#> # A tibble: 3,230 x 5
#>          county  fips beds_2013 pop_2013 beds_2013_p10k
#>           <chr> <chr>     <int>    <int>          <dbl>
#>  1  Autauga, AL 01001        50    55246       9.050429
#>  2  Baldwin, AL 01003       364   195540      18.615117
#>  3  Barbour, AL 01005        47    27076      17.358546
#>  4     Bibb, AL 01007        20    22512       8.884151
#>  5   Blount, AL 01009        40    57872       6.911805
#>  6  Bullock, AL 01011        54    10639      50.756650
#>  7   Butler, AL 01013        83    20265      40.957316
#>  8  Calhoun, AL 01015       458   116736      39.233827
#>  9 Chambers, AL 01017       188    34162      55.031907
#> 10 Cherokee, AL 01019        45    26203      17.173606
#> # ... with 3,220 more rows
…
